\relax 
\@writefile{toc}{\contentsline {section}{\numberline {1}Preliminaries}{1}}
\newlabel{eqns:var_deriv}{{2}{1}}
\@writefile{toc}{\contentsline {section}{\numberline {2}Continuum Description}{1}}
\newlabel{eqns:euler}{{3}{1}}
\newlabel{eqns:pb}{{4}{2}}
\@writefile{toc}{\contentsline {section}{\numberline {3} Discrete Description}{2}}
\newlabel{eqns:discretepb}{{9}{3}}
\@writefile{toc}{\contentsline {section}{\numberline {4}Timestepper}{3}}
\@writefile{toc}{\contentsline {subsection}{\numberline {4.1}Implicit Midpoint rule}{3}}
\@writefile{toc}{\contentsline {section}{\numberline {5}Firedrake form}{3}}
\@writefile{toc}{\contentsline {subsection}{\numberline {5.1}One -dimensional verification}{4}}
