\relax 
\@writefile{toc}{\contentsline {section}{\numberline {1}Preliminaries}{1}}
\newlabel{eqns:var_deriv}{{2}{1}}
\@writefile{toc}{\contentsline {section}{\numberline {2}Continuum Description}{1}}
\newlabel{eqns:euler}{{3}{1}}
\newlabel{eqns:pb}{{4}{2}}
\@writefile{toc}{\contentsline {section}{\numberline {3} Discrete Description}{2}}
\newlabel{eqns:discretepb}{{6}{3}}
\newlabel{eqns:incompressiblepb}{{7}{3}}
\@writefile{toc}{\contentsline {section}{\numberline {4}Divergence free initial velocity projection}{3}}
\@writefile{toc}{\contentsline {section}{\numberline {5}Timestepper}{4}}
\@writefile{toc}{\contentsline {subsection}{\numberline {5.1}Implicit Midpoint rule}{4}}
\newlabel{eqns:incompressiblepb_time}{{9}{4}}
\@writefile{toc}{\contentsline {section}{\numberline {6}Firedrake form}{4}}
